{
    "kucoin_api_key": "API KEY",
    "kucoin_api_secret": "API SECRET",
    "kucoin_api_passphrase": "API PASSPHRASE",
    "binance_api_key": "API KEY",
    "binance_api_secret": "API SECRET",
    "bittrex_api_key": "API KEY",
    "bittrex_api_secret": "API SECRET"
}
