{
    "kucoin_api_key": "6036a952a2644e0006e7ea94",
    "kucoin_api_secret": "e86d6f7f-d044-4f6e-9990-5108be2aa022",
    "kucoin_api_passphrase": "Magun2019",
    "binance_api_key": "RLGon1dDWuW7KfZENXscrnR4brbqwGrNcHU4MBZg58L3WwtVbZYMNuRNAaz74Cbk",
    "binance_api_secret": "v0bRTc7sERRFQKdKFzRYd0Jv4Bsb5LX0INeufNX3cWMSWvHNgQ1ELYVOn123wFia"
}
  