"Coin","Withdrawal Fee","Best in Market","Market Average","Market Median","Exchanges Compared"
"MMAPMAP Protocol","FREE","✅","$0.53","$0.53","2"
"AALPAAlpaca City","FREE","✅","$10.42","$10.42","2"
"JJ8TJET8","FREE14304.66 J8T","✅","FREE","FREE","1"
"NEONeo https://withdrawalfees.com/icons/coins/neo.png","FREE","✅","$2.22","FREE","29"
"PPNKKleros","$0.00060.01 PNK","FREEat ChangeNOW","$26.46","$14.36","7"
"RROSEOasis Network","$0.0010.01 ROSE","✅","$1.51","$0.52","4"
"STEEMSteem https://withdrawalfees.com/icons/coins/steem.png","$0.0040.01 STEEM","FREEat ChangeNOW","$1.46","$0.004","9"
"XLMStellar https://withdrawalfees.com/icons/coins/xlm.png","$0.0040.01 XLM","FREEat ChangeNOW","$0.61","$0.004","37"
"OOLTOneLedger","$0.0041 OLT","$0.00040.1 OLTat CoinEx","$0.35","$0.44","5"
"BTCPBitcoin Private https://withdrawalfees.com/icons/coins/btcp.png","$0.0040.01 BTCP","$0.00040.001 BTCPat HitBTC","$1.53","$0.004","3"
"NULSNULS https://withdrawalfees.com/icons/coins/nuls.png","$0.0050.01 NULS","✅","$2.94","$1.04","8"
"AAXEAxe","$0.0060.1 AXE","✅","$0.006","$0.006","1"
"ZELZel https://withdrawalfees.com/icons/coins/zel.png","$0.0070.1 ZEL","✅","$1.17","$1.17","2"
"XXNSInsolar","$0.00710 XNS","$0.00071 XNSat BitMax","$0.003","$0.003","3"
"TTTThunder Token","$0.0081 TT","✅","$1.66","$0.008","3"
"WTCWaltonchain https://withdrawalfees.com/icons/coins/wtc.png","$0.0090.01 WTC","FREEat ChangeNOW","$9.42","$4.36","8"
"HHCHyperCash","$0.0090.01 HC","FREEat ChangeNOW","$0.03","$0.009","9"
"UUSDJUSDJ","$0.010.01 USDJ","✅","$0.03","$0.03","2"
"VVELOVelo","$0.010.01 VELO","✅","$0.01","$0.01","1"
"OONIONDeepOnion","$0.020.1 ONION","$0.0010.01 ONIONat SouthXchange","$0.008","$0.008","2"
"GGODBitcoin God","$0.020.005 GOD","✅","$0.25","$0.37","3"
"GGOGoChain","$0.021 GO","FREEat ChangeNOW","$0.85","$0.0002","5"
"TOMOTomoChain https://withdrawalfees.com/icons/coins/tomo.png","$0.020.01 TOMO","✅","$5.10","$0.27","5"
"CCOSContentos","$0.032 COS","$0.021 COSat Gate.io","$3.89","$0.50","5"
"AIONAion https://withdrawalfees.com/icons/coins/aion.png","$0.040.2 AION","FREEat ChangeNOW","$16.56","$2.78","6"
"BBUBUMO","$0.0410 BU","$0.00040.1 BUat Gate.io","$0.02","$0.004","3"
"WWINWINk","$0.04200 WIN","FREEat Liquid","$0.28","$0.04","12"
"VVSYSv.systems","$0.042 VSYS","$0.0040.2 VSYSat BitForex","$0.43","$0.02","9"
"TTKYTHEKEY","$0.05100 TKY","FREEat Bilaxy","$0.36","$0.05","5"
"XRPXRP https://withdrawalfees.com/icons/coins/xrp.png","$0.050.1 XRP","FREEat ChangeNOW","$0.26","$0.07","33"
"TRXTRON https://withdrawalfees.com/icons/coins/trx.png","$0.051 TRX","FREEat ChangeNOW","$1.32","$0.05","36"
"WWGPW Green Pay","$0.0510 WGP","✅","$17.50","$17.50","2"
"QTUMQtum https://withdrawalfees.com/icons/coins/qtum.png","$0.060.01 QTUM","FREEat ChangeNOW","$1.03","$0.06","29"
"NANONano https://withdrawalfees.com/icons/coins/nano.png","$0.060.01 NANO","FREEat ChangeNOW","$13.48","$0.06","9"
"DGBDigiByte https://withdrawalfees.com/icons/coins/dgb.png","$0.061 DGB","FREEat ChangeNOW","$1.43","$0.03","17"
"GASGas https://withdrawalfees.com/icons/coins/gas.png","$0.070.005 GAS","FREEat ChangeNOW","$4.66","$0.07","12"
"GRINGrin https://withdrawalfees.com/icons/coins/grin.png","$0.080.2 GRIN","$0.040.1 GRINat BitForex","$5.47","$0.04","10"
"WANWanchain https://withdrawalfees.com/icons/coins/wan.png","$0.090.1 WAN","✅","$0.09","$0.09","4"
"MMHC#MetaHash","$0.1020 MHC","✅","$0.11","$0.11","2"
"BCDBitcoin Diamond https://withdrawalfees.com/icons/coins/bcd.png","$0.110.1 BCD","FREEat ChangeNOW","$2.66","$0.02","9"
"ZENHorizen https://withdrawalfees.com/icons/coins/zen.png","$0.110.002 ZEN","FREEat ChangeNOW","$7.93","$0.13","13"
"AALGOAlgorand","$0.110.1 ALGO","FREEat ChangeNOW","$1.36","$0.11","20"
"HPBHigh Performance Blockchain https://withdrawalfees.com/icons/coins/hpb.png","$0.121 HPB","✅","$2.38","$0.12","5"
"ETCEthereum Classic https://withdrawalfees.com/icons/coins/etc.png","$0.120.01 ETC","FREEat ChangeNOW","$0.87","$0.12","41"
"ACTAchain https://withdrawalfees.com/icons/coins/act.png","$0.1210 ACT","$0.00010.01 ACTat OKEx","$3.13","$0.67","6"
"BTTBitTorrent https://withdrawalfees.com/icons/coins/btt.png","$0.15100 BTT","FREEat ChangeNOW","$2.06","$0.15","24"
"BBCHABitcoin Cash ABC","$0.150.01 BCHA","$0.0070.0005 BCHAat CoinEx","$1.08","$0.15","11"
"LLOLEMOGI Network","$0.16500 LOL","✅","$0.16","$0.16","1"
"ELAElastos https://withdrawalfees.com/icons/coins/ela.png","$0.160.05 ELA","$0.020.005 ELAat CoinEx","$0.50","$0.16","5"
"STQStoriqa https://withdrawalfees.com/icons/coins/stq.png","$0.1610000 STQ","$0.008500 STQat Sistemkoin","$1.53","$0.24","4"
"CCHZChiliz","$0.173 CHZ","✅","$24.97","$19.19","12"
"CSCredits https://withdrawalfees.com/icons/coins/cs.png","$0.183 CS","$0.122 CSat GetBTC","$6.63","$2.80","6"
"ATOMCosmos https://withdrawalfees.com/icons/coins/atom.png","$0.200.01 ATOM","FREEat ChangeNOW","$3.21","$0.20","23"
"LTCLitecoin https://withdrawalfees.com/icons/coins/ltc.png","$0.200.001 LTC","FREEat ChangeNOW","$1.45","$0.20","53"
"MMASKMask Network","$0.210.01 MASK","FREEat Bilaxy","$14.33","$19.52","5"
"XMRMonero https://withdrawalfees.com/icons/coins/xmr.png","$0.210.001 XMR","FREEat ChangeNOW","$2.19","$0.21","22"
"NEBLNeblio https://withdrawalfees.com/icons/coins/nebl.png","$0.220.1 NEBL","$0.020.01 NEBLat Binance","$7.87","$0.22","3"
"ZILZilliqa https://withdrawalfees.com/icons/coins/zil.png","$0.242 ZIL","FREEat ChangeNOW","$3.10","$0.07","18"
"OONEHarmony","$0.2510 ONE","FREEat ChangeNOW","$2.16","$0.25","9"
"DBCDeepBrain Chain https://withdrawalfees.com/icons/coins/dbc.png","$0.25100 DBC","$0.0310 DBCat Gate.io","$0.10","$0.03","3"
"BCHBitcoin Cash https://withdrawalfees.com/icons/coins/bch.png","$0.270.0005 BCH","FREEat ChangeNOW","$1.48","$0.55","49"
"CCPCCPChain","$0.2930 CPC","$0.055 CPCat p2pb2b","$11.31","$0.29","5"
"NNIMNimiq","$0.3040 NIM","✅","$4.03","$0.30","3"
"MMLKMiL.k","$0.311 MLK","✅","$0.31","$0.31","1"
"THETATHETA https://withdrawalfees.com/icons/coins/theta.png","$0.320.1 THETA","FREEat ChangeNOW","$27.55","$6.47","9"
"LSKLisk https://withdrawalfees.com/icons/coins/lsk.png","$0.330.1 LSK","FREEat ChangeNOW","$1.90","$0.33","12"
"ITCIoT Chain https://withdrawalfees.com/icons/coins/itc.png","$0.354 ITC","✅","$0.35","$0.35","1"
"FILFilecoin https://withdrawalfees.com/icons/coins/fil.png","$0.370.01 FIL","FREEat ChangeNOW","$4.82","$1.83","18"
"EOSEOS https://withdrawalfees.com/icons/coins/eos.png","$0.400.1 EOS","FREEat ChangeNOW","$0.75","$0.40","41"
"TTFUELTheta Fuel","$0.435 TFUEL","$0.263 TFUELat OKEx","$29.18","$0.65","6"
"BTMBytom https://withdrawalfees.com/icons/coins/btm.png","$0.465 BTM","$0.0010.02 BTMat CoinEx","$1.45","$0.46","14"
"NNRGEnergi","$0.470.2 NRG","$0.240.1 NRGat CoinEx","$1.14","$0.53","6"
"DASHDash https://withdrawalfees.com/icons/coins/dash.png","$0.480.002 DASH","FREEat ChangeNOW","$1.88","$0.48","36"
"IOSTIOST https://withdrawalfees.com/icons/coins/iost.png","$0.4910 IOST","FREEat ChangeNOW","$4.89","$0.24","15"
"NNIXNIX","$0.533 NIX","✅","$0.53","$0.53","1"
"WWXTWirex Token","$0.5450 WXT","✅","$0.54","$0.54","3"
"ONGOntology Gas https://withdrawalfees.com/icons/coins/ong.png","$0.561 ONG","FREEat ChangeNOW","$0.52","$0.06","9"
"MMXWMaxonrow","$0.5730 MXW","$0.095 MXWat BitMart","$0.33","$0.33","2"
"VVOLVolume Network","$0.632100 VOL","✅","$0.63","$0.63","1"
"NNVTNerveNetwork","$0.6710 NVT","$0.00060.01 NVTat OKEx","$0.17","$0.004","6"
"ZECZcash https://withdrawalfees.com/icons/coins/zec.png","$0.690.005 ZEC","FREEat ChangeNOW","$1.91","$0.41","29"
"DOCKDock https://withdrawalfees.com/icons/coins/dock.png","$0.7020 DOCK","FREEat ChangeNOW","$5.43","$0.70","5"
"XXHVHaven Protocol","$0.710.1 XHV","$0.070.01 XHVat Bittrex","$5.87","$0.71","5"
"CCKBNervos Network","$0.7350 CKB","$0.00010.01 CKBat CoinEx","$1.91","$0.44","12"
"PPOLProof Of Liquidity","$0.9010 POL","✅","$0.90","$0.90","1"
"EEOSCEOS Force","$0.92100 EOSC","$0.0091 EOSCat CoinEx","$0.34","$0.09","3"
"AACATAlphacat","$0.942700 ACAT","✅","$3.97","$3.97","2"
"VTHOVeThor Token https://withdrawalfees.com/icons/coins/vtho.png","$1.00200 VTHO","$0.2550 VTHOat CoinEx","$2.43","$1.00","7"
"UUSDNNeutrino USD","$1.001 USDN","$0.100.1 USDNat Bittrex","$0.82","$1.00","5"
"AADBadbank","$1.04800 ADB","✅","$1.04","$1.04","1"
"ONTOntology https://withdrawalfees.com/icons/coins/ont.png","$1.041 ONT","FREEat ChangeNOW","$1.15","$1.04","21"
"SSHASafe Haven","$1.06300 SHA","✅","$1.06","$1.06","1"
"ADACardano https://withdrawalfees.com/icons/coins/ada.png","$1.111 ADA","FREEat ChangeNOW","$8.67","$1.11","25"
"RREVRevain","$1.1997 REV","✅","$27.58","$12.78","6"
"SSDTTerra SDT","$1.291 SDT","✅","$2.06","$2.06","2"
"EEFXEffect.AI","$1.2910 EFX","FREEat BitMart","$0.65","$0.65","2"
"GGZILgovernance ZIL","$1.380.01 GZIL","✅","$1.38","$1.38","1"
"MMCTMaster Contract Token","$1.381500 MCT","✅","$1.38","$1.38","1"
"DCRDecred https://withdrawalfees.com/icons/coins/dcr.png","$1.470.01 DCR","FREEat ChangeNOW","$7.12","$4.36","16"
"ETNElectroneum https://withdrawalfees.com/icons/coins/etn.png","$1.49150 ETN","$0.5050 ETNat Liquid","$0.89","$0.99","5"
"JJSTJUST","$1.5130 JST","FREEat ChangeNOW","$3.40","$1.51","13"
"PIVXPIVX https://withdrawalfees.com/icons/coins/pivx.png","$1.581 PIVX","$0.020.01 PIVXat CoinEx","$2.24","$0.39","6"
"MMANMatrix AI Network","$1.5860.7394 MAN","$0.031 MANat LBank","$2.43","$1.58","5"
"WWESTWaves Enterprise","$1.648 WEST","$0.211 WESTat Gate.io","$0.92","$0.92","2"
"LLOKIOxen","$1.802 LOKI","✅","$1.80","$1.80","1"
"EENQEnecuum","$1.8340 ENQ","✅","$1.83","$1.83","1"
"XTZTezos https://withdrawalfees.com/icons/coins/xtz.png","$1.880.5 XTZ","FREEat ChangeNOW","$2.46","$0.94","22"
"EEDNEden","$1.941112.516 EDN","✅","$38.26","$38.26","2"
"MMETAMetadium","$1.9696.9 META","$0.00010.006 METAat Bittrex","$4.03","$1.96","3"
"UUSTTerraUSD","$2.002 UST","✅","$268.37","$3.08","3"
"NNWCNewscrypto","$2.0710 NWC","✅","$15.37","$9.30","3"
"XEMNEM https://withdrawalfees.com/icons/coins/xem.png","$2.114 XEM","FREEat ChangeNOW","$5.22","$2.11","20"
"WAVESWaves https://withdrawalfees.com/icons/coins/waves.png","$2.110.2 WAVES","FREEat ChangeNOW","$4.47","$0.06","19"
"DOGEDogecoin https://withdrawalfees.com/icons/coins/doge.png","$2.1940 DOGE","FREEat ChangeNOW","$3.99","$1.09","32"
"TRTLTurtleCoin https://withdrawalfees.com/icons/coins/trtl.png","$2.4180000 TRTL","$0.006200 TRTLat Dcoin","$0.67","$0.30","5"
"BNBBinance Coin https://withdrawalfees.com/icons/coins/bnb.png","$2.550.01 BNB","FREEat ChangeNOW","$17.40","$2.55","23"
"CCAKEPancakeSwap","$2.680.2 CAKE","$0.130.01 CAKEat CoinEx","$1.59","$1.43","4"
"DDERODero","$3.041.13 DERO","$0.270.1 DEROat SouthXchange","$2.51","$2.86","4"
"DDAGConstellation","$3.16100 DAG","FREEat Bilaxy","$6.23","$3.16","3"
"AAVATravala.com","$3.201 AVA","FREEat ChangeNOW","$14.51","$1.85","8"
"HHTRHathor","$3.344 HTR","$1.672 HTRat Coinsbit","$2.51","$2.51","2"
"DDFIDeFiChain","$3.401 DFI","$0.340.1 DFIat Bittrex","$1.87","$1.87","2"
"TTRYTrias","$3.4312722 TRY","FREEat Bilaxy","$1.71","$1.71","2"
"DDOTPolkadot","$3.430.1 DOT","FREEat ChangeNOW","$5.99","$3.43","22"
"EEWTEnergy Web Token","$3.560.25 EWT","✅","$3.56","$3.56","3"
"PPMGTPerth Mint Gold Token","$3.570.002 PMGT","✅","$4.47","$4.47","2"
"AARPAARPA Chain","$3.59103 ARPA","✅","$20.59","$17.00","7"
"CCASCashaa","$3.6920.214 CAS","✅","$23.96","$23.96","2"
"SSOULPhantasma","$3.7710 SOUL","$0.491.3 SOULat Bilaxy","$2.05","$1.89","3"
"QQKCQuarkChain","$3.83300 QKC","$0.2620 QKCat Gate.io","$26.73","$15.43","5"
"JJARJarvis+","$3.86902.541 JAR","$2.14500 JARat Bilaxy","$3.00","$3.00","2"
"SSPRKSparkster","$3.971500 SPRK","✅","$26.38","$26.38","2"
"RROADROAD","$4.142235 ROAD","✅","$4.96","$4.96","2"
"WWISExperty Wisdom Token","$4.22100 WIS","✅","$4.22","$4.22","1"
"VETVeChain https://withdrawalfees.com/icons/coins/vet.png","$4.41100 VET","FREEat ChangeNOW","$5.43","$4.41","14"
"LLONTokenlon Network Token","$4.780.73 LON","✅","$26.19","$19.65","7"
"IOTXIoTeX https://withdrawalfees.com/icons/coins/iotx.png","$4.93214 IOTX","$0.2511 IOTXat Binance","$26.05","$5.76","7"
"MMVPMerculet","$4.9610000 MVP","$3.116278.56748204 MVPat OKEx","$4.34","$4.96","3"
"SSTRONGStrong","$4.960.0741 STRONG","✅","$24.42","$21.43","3"
"KKSMKusama","$4.970.02 KSM","FREEat ChangeNOW","$7.07","$2.48","13"
"PPLAYHEROcoin","$5.291347.676 PLAY","✅","$5.29","$5.29","1"
"LRCLoopring https://withdrawalfees.com/icons/coins/lrc.png","$5.359.278 LRC","FREEat ChangeNOW","$28.57","$20.13","17"
"BBUXBUX Token","$5.4426.36 BUX","$0.100.5 BUXat p2pb2b","$2.77","$2.77","2"
"BBLOCBlockcloud","$5.4730000 BLOC","$2.5013719.97530404 BLOCat OKEx","$12.54","$4.69","4"
"KKAIKardiaChain","$5.48200 KAI","$0.00020.01 KAIat Gate.io","$23.41","$5.48","5"
"SNMSONM https://withdrawalfees.com/icons/coins/snm.png","$5.64264 SNM","FREEat ChangeNOW","$17.82","$4.74","8"
"MMSWAPMoneySwap","$5.77936 MSWAP","✅","$5.77","$5.77","1"
"OORAIOraichain Token","$6.070.1 ORAI","✅","$24.49","$21.86","3"
"CCIX100Cryptoindex.com 100","$6.866.69 CIX100","✅","$6.86","$6.86","1"
"UUBXUBIX.Network","$6.87300000 UBX","FREEat Bilaxy","$3.44","$3.44","2"
"LLUNATerra","$6.911 LUNA","FREEat ChangeNOW","$19.11","$10.65","8"
"MMITXMorpheus Labs","$6.93155.219 MITX","FREEat Liquid","$25.54","$22.29","4"
"BBUYBurency","$7.2065 BUY","$1.1110 BUYat BitMart","$4.16","$4.16","2"
"GGMBGAMB","$7.309000 GMB","✅","$7.30","$7.30","1"
"VVIVid","$7.4460 VI","$1.8615 VIat Liquid","$4.65","$4.65","2"
"CCOTICOTI","$7.5733 COTI","FREEat ChangeNOW","$21.20","$19.51","6"
"PPHAPhala.Network","$7.599.468 PHA","✅","$20.84","$16.63","6"
"RRBTCRSK Smart Bitcoin","$7.650.00015 RBTC","✅","$16.58","$16.58","2"
"OOPENOpen Platform","$7.733552 OPEN","✅","$13.67","$13.67","2"
"SSUTERsuterusu","$7.82995 SUTER","$7.08900 SUTERat LBank","$10.54","$7.72","4"
"PAXPaxos Standard https://withdrawalfees.com/icons/coins/pax.png","$8.028 PAX","FREEat ChangeNOW","$18.52","$15.04","27"
"PPLUPluton","$8.171.3 PLU","✅","$31.53","$26.86","5"
"BATBasic Attention Token https://withdrawalfees.com/icons/coins/bat.png","$8.2215.772 BAT","FREEat ChangeNOW","$23.45","$18.24","33"
"KNCKyber Network https://withdrawalfees.com/icons/coins/knc.png","$8.544.7117 KNC","FREEat ChangeNOW","$21.92","$15.72","28"
"XXSRXensor","$8.561555 XSR","$4.53823 XSRat Bittrex","$16.99","$8.56","5"
"CCHPCoinPoker","$8.651000 CHP","✅","$40.12","$40.12","2"
"ZZEEZeroSwap","$8.769.795 ZEE","✅","$33.18","$42.48","3"
"AAMPLAmpleforth","$8.8110 AMPL","$1.281.45 AMPLat Dcoin","$11.56","$8.81","5"
"UUMAUMA","$8.890.4 UMA","FREEat ChangeNOW","$37.04","$29.88","16"
"BBOLTBOLT","$9.011123.358 BOLT","$0.0810 BOLTat Binance","$19.78","$9.01","3"
"HHYDRAHydra","$9.301.5 HYDRA","✅","$23.86","$23.86","2"
"RREAPReapChain","$9.3150 REAP","✅","$9.31","$9.31","1"
"CCOVCovesting","$9.4627 COV","✅","$38.33","$38.33","2"
"SSRKSparkPoint","$9.61757.57 SRK","FREEat ChangeNOW","$43.04","$26.41","7"
"SSNTVTSentivate","$9.621388.625 SNTVT","FREEat Bilaxy","$4.81","$4.81","2"
"MMTCDOC.COM","$9.714368 MTC","$1.14513.16 MTCat HitBTC","$4.06","$1.33","3"
"CCSPCaspian","$9.951900 CSP","✅","$9.95","$9.95","1"
"BBAXBABB","$9.96154153 BAX","✅","$20.80","$20.80","2"
"SSUSDsUSD","$10.0910 SUSD","FREEat ChangeNOW","$8.75","$10.09","3"
"DDXDxChain Token","$10.127403 DX","$4.783500 DXat LBank","$21.04","$15.31","4"
"TTOKOTokoin","$10.161872 TOKO","✅","$26.38","$26.38","2"
"CCXOCargoX","$10.21166.771 CXO","✅","$10.21","$10.21","1"
"MMTVMultiVAC","$10.2518000 MTV","✅","$17.85","$19.94","3"
"UUDOOHyprr (Howdoo)","$10.27200 UDOO","✅","$27.22","$27.22","2"
"CCVcarVertical","$10.2911168.345 CV","$0.00910 CVat BitMart","$5.15","$5.15","2"
"TTIMEChrono.tech","$10.443 TIME","$3.481 TIMEat Tidex","$27.45","$10.44","3"
"OOPCTOpacity","$10.50151.111 OPCT","✅","$10.50","$10.50","1"
"AALEPHAleph.im","$10.5526.456 ALEPH","✅","$14.85","$14.85","2"
"FFRMFerrum Network","$10.6021 FRM","✅","$34.06","$44.14","3"
"CCRVCurve DAO Token","$10.704.78 CRV","$0.450.2 CRVat Gemini","$24.55","$16.46","15"
"BBOABOSAGORA","$10.7351 BOA","✅","$30.73","$30.73","2"
"LLOCLockTrip","$10.749 LOC","✅","$17.31","$17.31","2"
"YYFIyearn.finance","$10.800.00031 YFI","FREEat ChangeNOW","$23.23","$17.42","25"
"LLTXLattice Token","$10.8932.626 LTX","✅","$31.48","$31.48","2"
"KCSKuCoin Token https://withdrawalfees.com/icons/coins/kcs.png","$11.002 KCS","✅","$11.00","$11.00","1"
"PREPresearch https://withdrawalfees.com/icons/coins/pre.png","$11.01173.39 PRE","✅","$36.62","$36.62","2"
"TTONETE-FOOD","$11.05449.956 TONE","✅","$11.05","$11.05","1"
"MMWATRestart Energy MWAT","$11.061359.739 MWAT","$1.63200 MWATat Sistemkoin","$6.34","$6.34","2"
"KKLVKlever","$11.08607.017 KLV","$0.105.5 KLVat Bittrex","$5.59","$5.59","2"
"KKATKambria","$11.238736 KAT","FREEat Bilaxy","$3.89","$0.45","3"
"DDAODAO Maker","$11.432.95 DAO","✅","$25.90","$19.77","3"
"SSTXStacks","$11.4910 STX","$0.0010.001 STXat CoinEx","$5.98","$5.75","5"
"AAKROAkropolis","$11.50318 AKRO","✅","$41.37","$39.43","8"
"11INCH1inch","$11.712.8327 1INCH","$8.272 1INCHat Coinone","$30.41","$19.49","12"
"VVRAVerasity","$11.974907 VRA","$2.441000 VRAat Dcoin","$34.46","$36.98","6"
"MKRMaker https://withdrawalfees.com/icons/coins/mkr.png","$11.980.0053 MKR","FREEat ChangeNOW","$23.79","$17.19","26"
"SSUKUSUKU","$12.3155 SUKU","$5.5925 SUKUat Bilaxy","$22.90","$12.31","3"
"CCOMPCompound","$12.530.028 COMP","FREEat ChangeNOW","$17.75","$15.16","26"
"OMGOMG Network https://withdrawalfees.com/icons/coins/omg.png","$12.652.55 OMG","FREEat ChangeNOW","$16.70","$13.39","27"
"GGRTThe Graph","$12.706.5847 GRT","FREEat Coinbase Pro","$23.78","$17.85","12"
"DDMGDMM: Governance","$12.84151.1508 DMG","FREEat ChangeNOW","$22.87","$19.29","8"
"CCUDOSCUDOS","$12.92203 CUDOS","✅","$46.66","$46.47","4"
"TUSDTrueUSD https://withdrawalfees.com/icons/coins/tusd.png","$13.0013 TUSD","FREEat ChangeNOW","$1802.90","$10.00","28"
"SSNXSynthetix","$13.000.6 SNX","FREEat ChangeNOW","$31.95","$23.62","23"
"AAPI3API3","$13.002.7652 API3","✅","$34.29","$27.56","7"
"PPROPSProps Token","$13.18230 PROPS","$11.46200 PROPSat TOKOK","$21.95","$17.13","6"
"CRPTCrypterium https://withdrawalfees.com/icons/coins/crpt.png","$13.3847 CRPT","$1.425 CRPTat Tidex","$20.72","$8.12","4"
"NNOIASyntropy","$13.5331 NOIA","✅","$13.53","$13.53","1"
"ZRX0x https://withdrawalfees.com/icons/coins/zrx.png","$14.098.91 ZRX","FREEat ChangeNOW","$24.75","$19.76","34"
"CCHSBSwissBorg","$14.2015 CHSB","FREEat ChangeNOW","$35.29","$37.40","4"
"AAOAAurora","$14.285241 AOA","$10.703927.56 AOAat Coinone","$12.49","$12.49","2"
"SSENSOSENSO","$14.3642 SENSO","$9.9229 SENSOat HitBTC","$39.03","$32.32","4"
"DDAPPTDapp Token","$14.4210567 DAPPT","$1.361000 DAPPTat Bilaxy","$29.09","$14.42","3"
"DDIADIA","$14.566.25 DIA","FREEat ChangeNOW","$23.21","$15.67","10"
"PPAZZIPaparazzi","$14.6240000 PAZZI","$0.531444 PAZZIat BW","$7.57","$7.57","2"
"VVIDTVIDT Datalink","$14.8923 VIDT","✅","$15.53","$15.53","2"
"MANADecentraland https://withdrawalfees.com/icons/coins/mana.png","$14.9256.4996 MANA","FREEat ChangeNOW","$23.70","$18.48","23"
"DRGNDragonchain https://withdrawalfees.com/icons/coins/drgn.png","$14.9397.1 DRGN","✅","$33.55","$19.99","7"
"LOOMLoom Network https://withdrawalfees.com/icons/coins/loom.png","$15.01121 LOOM","FREEat ChangeNOW","$53.08","$31.02","12"
"DAIDai https://withdrawalfees.com/icons/coins/dai.png","$15.0215 DAI","FREEat ChangeNOW","$17.03","$13.01","23"
"SSOLVESOLVE","$15.2192 SOLVE","✅","$71.27","$52.70","4"
"WWBTCWrapped Bitcoin","$15.240.0003 WBTC","FREEat ChangeNOW","$24.29","$15.24","14"
"VVIDVideoCoin","$15.26101 VID","✅","$36.03","$36.03","2"
"SSUSHISushiSwap","$15.490.94 SUSHI","FREEat ChangeNOW","$38.08","$26.39","17"
"FFXFunction X","$15.58114 FX","✅","$33.48","$33.48","2"
"AGISingularityNET https://withdrawalfees.com/icons/coins/agi.png","$15.7179 AGI","FREEat ChangeNOW","$24.50","$17.89","7"
"XXDBDigitalBits","$15.72508.081 XDB","$9.38303 XDBat Bilaxy","$14.63","$15.60","4"
"UUOSUltra","$16.0656.799 UOS","$1.987 UOSat Coinone","$23.06","$23.82","4"
"ETHEthereum https://withdrawalfees.com/icons/coins/eth.png","$16.260.01 ETH","FREEat ChangeNOW","$21.12","$16.26","54"
"PPTPopulous https://withdrawalfees.com/icons/coins/ppt.png","$16.277.97 PPT","FREEat ChangeNOW","$24.01","$16.77","8"
"AARXARCS","$16.3642 ARX","✅","$16.36","$16.36","1"
"TELTelcoin https://withdrawalfees.com/icons/coins/tel.png","$16.524617 TEL","✅","$44.17","$49.16","3"
"FFRONTFrontier","$16.635.37 FRONT","$6.192 FRONTat Coinone","$33.26","$19.82","9"
"SSYLOSylo","$16.6311460 SYLO","✅","$18.48","$18.48","2"
"FFETFetch.ai","$17.0867 FET","FREEat ChangeNOW","$21.94","$16.95","10"
"DDGTXDigitex","$17.142666 DGTX","✅","$42.53","$40.51","3"
"KKICKKickToken","$17.20450000 KICK","$0.00015 KICKat Gate.io","$15.37","$12.90","8"
"IIDEAIdeaology","$17.2156.417 IDEA","✅","$25.54","$25.54","2"
"MMIRMirror Protocol","$17.253 MIR","$14.202.46977103 MIRat OKEx","$19.11","$18.17","5"
"UTKUtrust https://withdrawalfees.com/icons/coins/utk.png","$17.3647 UTK","FREEat ChangeNOW","$37.10","$24.45","9"
"AAERGOAergo","$17.41150 AERGO","$13.81119 AERGOat Bittrex","$34.89","$17.99","7"
"OOCEANOcean Protocol","$17.4418 OCEAN","FREEat ChangeNOW","$37.12","$21.31","11"
"RENRen https://withdrawalfees.com/icons/coins/ren.png","$17.7414.5 REN","FREEat ChangeNOW","$26.09","$20.40","20"
"RREVVREVV","$18.04123 REVV","$4.2529 REVVat p2pb2b","$27.10","$28.09","4"
"RROOBEEROOBEE","$18.743743 ROOBEE","$2.50500 ROOBEEat Liquid","$21.74","$18.74","5"
"TTRACOriginTrail","$18.8238.7 TRAC","✅","$42.71","$49.11","3"
"AACOINAlchemy","$18.9214.312 ACOIN","✅","$18.92","$18.92","1"
"DDACCDACC","$19.2486988.721 DACC","$0.442000 DACCat BitForex","$9.84","$9.84","2"
"CCHRChromia","$19.81345 CHR","$10.79188 CHRat Bittrex","$37.17","$31.87","6"
"USDCUSD Coin https://withdrawalfees.com/icons/coins/usdc.png","$20.0020 USDC","FREEat ChangeNOW","$19.70","$15.00","35"
"USDTTether https://withdrawalfees.com/icons/coins/usdt.png","$20.0120 USDT","FREEat Exmo","$19.42","$12.00","41"
"ELFaelf https://withdrawalfees.com/icons/coins/elf.png","$20.0382 ELF","FREEat ChangeNOW","$19.63","$15.96","10"
"AMBAmbrosus https://withdrawalfees.com/icons/coins/amb.png","$20.05496 AMB","FREEat ChangeNOW","$9.02","$7.19","8"
"UUQCUquid Coin","$20.292.2 UQC","✅","$37.81","$37.81","2"
"DDEGODego Finance","$20.405 DEGO","$19.584.8 DEGOat Gate.io","$20.12","$20.40","3"
"CCAPPCappasity","$20.529800 CAPP","$5.252504.6 CAPPat HitBTC","$12.89","$12.89","2"
"SSPNDSpendcoin","$20.53800 SPND","$14.78575.84163368 SPNDat OKEx","$30.61","$27.75","4"
"CCOMBCombo","$20.554466 COMB","✅","$20.55","$20.55","1"
"QQNTQuant","$20.610.57 QNT","FREEat ChangeNOW","$28.13","$20.61","5"
"SNTStatus https://withdrawalfees.com/icons/coins/snt.png","$20.91240 SNT","FREEat ChangeNOW","$34.28","$19.82","18"
"CCOFICoinFi","$20.959635 COFI","$20.009200 COFIat Gate.io","$20.48","$20.48","2"
"FFKXFortKnoxster","$21.45829.905 FKX","✅","$21.45","$21.45","1"
"ENJEnjin Coin https://withdrawalfees.com/icons/coins/enj.png","$22.3836 ENJ","FREEat ChangeNOW","$34.23","$19.89","19"
"SSXPSwipe","$22.588.8 SXP","FREEat ChangeNOW","$31.36","$21.30","12"
"POWRPower Ledger https://withdrawalfees.com/icons/coins/powr.png","$23.05103 POWR","FREEat ChangeNOW","$26.28","$20.37","11"
"DENTDent https://withdrawalfees.com/icons/coins/dent.png","$24.1611526 DENT","$17.048130 DENTat Binance","$55.81","$44.88","7"
"DDATXDATx","$24.8164556 DATX","$0.381000 DATXat BitForex","$32.13","$24.81","3"
"BTCBitcoin https://withdrawalfees.com/icons/coins/btc.png","$25.420.0005 BTC","FREEat ChangeNOW","$29.09","$25.42","56"
"UUNIUniswap","$25.931 UNI","FREEat ChangeNOW","$28.52","$25.93","23"
"UUNFIUnifi Protocol DAO","$25.940.69 UNFI","FREEat ChangeNOW","$16.16","$19.36","4"
"UUBXTUpBots","$26.58867 UBXT","✅","$26.58","$26.58","1"
"REQRequest https://withdrawalfees.com/icons/coins/req.png","$26.83277 REQ","$1.4515 REQat OKEx","$17.73","$19.37","5"
"CCTIClinTex CTi","$27.17268 CTI","✅","$27.17","$27.17","1"
"LINKChainlink https://withdrawalfees.com/icons/coins/link.png","$28.091 LINK","FREEat ChangeNOW","$22.78","$20.11","38"
"CCROCrypto.com Coin","$28.44165.2597 CRO","FREEat ChangeNOW","$24.17","$17.67","12"
"FFOTAFortuna","$29.4830000 FOTA","✅","$46.11","$46.11","2"
"CVCCivic https://withdrawalfees.com/icons/coins/cvc.png","$29.6777 CVC","FREEat ChangeNOW","$27.46","$18.50","14"
"KKEYSelfkey","$31.143150 KEY","$0.00090.1 KEYat TOKOK","$26.51","$23.69","8"
"LLYMLympo","$33.242975 LYM","$16.631488.4 LYMat Bitfinex","$23.33","$20.11","3"
"WWOMWOM Protocol","$34.05160 WOM","$2.1310 WOMat Liquid","$19.08","$21.07","3"
"NPXSPundi X https://withdrawalfees.com/icons/coins/npxs.png","$35.5614556 NPXS","FREEat ChangeNOW","$29.29","$27.79","10"
"MMTNMedicalchain","$37.2310000 MTN","$1.01270 MTNat Tidex","$16.89","$18.98","5"
"AAAVEAave","$37.740.1 AAVE","FREEat ChangeNOW","$215.54","$37.74","23"
"OORNOrion Protocol","$41.763.02 ORN","$16.591.2 ORNat Binance","$43.51","$43.55","6"
"TTFLTrueFlip","$44.76200 TFL","$7.6334.1 TFLat HitBTC","$26.20","$26.20","2"
"XXYOXYO","$46.65111111 XYO","$5.2412480 XYOat Bittrex","$59.25","$46.65","3"
"BBEPROBEPRO Network","$54.0215980 BEPRO","✅","$66.55","$66.55","2"
"FFTMFantom","$74.2495 FTM","$15.7320.13109195 FTMat OKEx","$87.81","$58.68","10"
"EEGTEgretia","$111.2233333 EGT","$4.001200 EGTat Bilaxy","$43.00","$13.78","3"